Análise de Gastos de Deputados
…
Quais os deputados que mais ultrapassam o limite de CEAP do seu estado?

dadosCEAP %>%
  group_by(nomeParlamentar, sgUF) %>%
  summarise(gastosDeputado=sum(valorLíquido)) %>%
  left_join(limiteMensalCEAP, by=c("sgUF" = "UF")) %>%
  mutate(limite_mensal = 24*limite_mensal) %>%
  filter(gastosDeputado > limite_mensal)

## # A tibble: 407 x 4
## # Groups:   nomeParlamentar [407]
##         nomeParlamentar  sgUF gastosDeputado limite_mensal
##                   <chr> <chr>          <dbl>         <dbl>
##  1    ABEL MESQUITA JR.    RR        1368606     1094700.7
##  2       ADAIL CARNEIRO    CE        1056175     1018842.5
##  3 ADALBERTO CAVALCANTI    PE        1310511     1000243.2
##  4 ADELMO CARNEIRO LEÃO    MG        1078879      866225.0
##  5        ADEMIR CAMILO    MG        1144994      866225.0
##  6       AELTON FREITAS    MG        1201555      866225.0
##  7      AFONSO FLORENCE    BA        1257739      936260.4
##  8          AFONSO HAMM    RS        1102687      981021.6
##  9         AFONSO MOTTA    RS        1238373      981021.6
## 10    AGUINALDO RIBEIRO    PB        1256179     1008781.4
## # ... with 397 more rows

dadosCEAP %>%
  mutate()

## # A tibble: 963,452 x 14
##      nomeParlamentar idCadastro  sgUF sgPartido
##                <chr>      <int> <chr>     <chr>
##  1 ABEL MESQUITA JR.     178957    RR       DEM
##  2 ABEL MESQUITA JR.     178957    RR       DEM
##  3 ABEL MESQUITA JR.     178957    RR       DEM
##  4 ABEL MESQUITA JR.     178957    RR       DEM
##  5 ABEL MESQUITA JR.     178957    RR       DEM
##  6 ABEL MESQUITA JR.     178957    RR       DEM
##  7 ABEL MESQUITA JR.     178957    RR       DEM
##  8 ABEL MESQUITA JR.     178957    RR       DEM
##  9 ABEL MESQUITA JR.     178957    RR       DEM
## 10 ABEL MESQUITA JR.     178957    RR       DEM
## # ... with 963,442 more rows, and 10 more variables: tipoDespesa <chr>,
## #   especDespesa <chr>, fornecedor <chr>, CNPJCPF <chr>,
## #   tipoDocumento <int>, dataEmissao <dttm>, valorDocumento <dbl>,
## #   valorGlosa <dbl>, valorLíquido <dbl>, diaMesAno <date>
